
<svg xmlns="http://www.w3.org/2000/svg" viewBox="0 0 16 16" width="16" height="16">

<title>bookmark</title>

<g class="nc-icon-wrapper" stroke-width="1" fill="#0c96c4" stroke="#0c96c4">

<path d="M2.5,15.5l6-3,6,3V2.5a2,2,0,0,0-2-2h-8a2,2,0,0,0-2,2Z" fill="none" stroke="#0c96c4" stroke-linecap="round" stroke-linejoin="round"></path></g></svg>