
<svg xmlns="http://www.w3.org/2000/svg" viewBox="0 0 24 24" width="24" height="24">

<title>bookmark add</title>

<g class="nc-icon-wrapper" stroke-linecap="square" stroke-linejoin="miter" stroke-width="2" fill="#0c96c4" stroke="#0c96c4">

<line data-color="color-2" x1="12" y1="6" x2="12" y2="12" fill="none" stroke-miterlimit="10"></line> 

<line data-color="color-2" x1="9" y1="9" x2="15" y2="9" fill="none" stroke-miterlimit="10"></line> 

<path d="M21,22l-9-5L3,22V3A2,2,0,0,1,5,1H19a2,2,0,0,1,2,2Z" fill="none" stroke="#0c96c4" stroke-miterlimit="10"></path></g></svg>