
<svg xmlns="http://www.w3.org/2000/svg" width="26" height="31.117" viewBox="0 0 26 31.117" stroke="#22b7db" fill="#22b7db">
  












<g id="Group_9" data-name="Group 9" transform="translate(-296.717 -382.5)" stroke="#22b7db" fill="#22b7db">
    












<line id="Line_2" data-name="Line 2" x1="24" transform="translate(297.717 412.617)" fill="none" stroke="#C43C00" stroke-linecap="round" stroke-miterlimit="10" stroke-width="2"></line>
    












<g id="Group_8" data-name="Group 8" transform="translate(303.289 383.5)" stroke="#22b7db" fill="#22b7db">
      












<line id="Line_3" data-name="Line 3" y1="19.411" transform="translate(6.32)" fill="none" stroke="#C43C00" stroke-linecap="round" stroke-miterlimit="10" stroke-width="2"></line>
      












<path id="Path_49" data-name="Path 49" d="M321.14,411.5l-6.32,6.771L308.5,411.5" transform="translate(-308.5 -398.86)" fill="none" stroke="#C43C00" stroke-linecap="round" stroke-linejoin="round" stroke-miterlimit="10" stroke-width="2"></path>
    </g>
  </g>
</svg>