
<svg xmlns="http://www.w3.org/2000/svg" width="23.261" height="23.261" viewBox="0 0 23.261 23.261" stroke="#172664" fill="#172664">
  












<g id="Group_56" data-name="Group 56" transform="translate(-951.321 -36.641)" stroke="#172664" fill="#172664">
    












<g id="Group_45" data-name="Group 45" transform="translate(952.735 50.968)" stroke="#172664" fill="#172664">
      












<line id="Line_14" data-name="Line 14" y1="7.52" x2="7.719" transform="translate(0 0)" fill="none" stroke="#C43C00" stroke-linecap="round" stroke-miterlimit="10" stroke-width="2"></line>
      












<path id="Path_134" data-name="Path 134" d="M5.758,6.173H0V0" transform="translate(0 1.347)" fill="none" stroke="#C43C00" stroke-linecap="round" stroke-linejoin="round" stroke-miterlimit="10" stroke-width="2"></path>
    </g>
    












<g id="Group_47" data-name="Group 47" transform="translate(965.66 38.055)" stroke="#172664" fill="#172664">
      












<g id="Group_46" data-name="Group 46" transform="translate(0 0)" stroke="#172664" fill="#172664">
        












<line id="Line_15" data-name="Line 15" x1="7.508" y2="7.508" fill="none" stroke="#C43C00" stroke-linecap="round" stroke-miterlimit="10" stroke-width="2"></line>
      </g>
      












<path id="Path_135" data-name="Path 135" d="M0,0" transform="translate(2.592)" fill="none" stroke="#C43C00" stroke-linecap="round" stroke-width="2"></path>
      












<path id="Path_136" data-name="Path 136" d="M0,0H5.758V6.173" transform="translate(1.749 0)" fill="none" stroke="#C43C00" stroke-linecap="round" stroke-linejoin="round" stroke-miterlimit="10" stroke-width="2"></path>
    </g>
  </g>
</svg>