
<svg xmlns="http://www.w3.org/2000/svg" viewBox="0 0 32 32" width="32" height="32">

<title>network connection</title>

<g class="nc-icon-wrapper" fill="#0c96c4">

<path d="M25,20a5.987,5.987,0,0,0-4.681,2.256L12.652,18a5.9,5.9,0,0,0,0-3.992l7.667-4.26A6.047,6.047,0,1,0,19.348,8l-7.667,4.26a6,6,0,1,0,0,7.488L19.348,24A6,6,0,1,0,25,20Z" fill="#0c96c4"></path></g></svg>